<svg xmlns="http://www.w3.org/2000/svg" width="16" height="16" viewBox="0 0 16 16">
  <defs>
    <style>
      .cls-1 {
        fill: #fff;
        fill-rule: evenodd;
      }
    </style>
  </defs>
  <path class="cls-1" d="M1446,1033.99h-13.01a1,1,0,0,1,0-2H1446A1,1,0,0,1,1446,1033.99Zm-7,7a1.007,1.007,0,0,1-.71-0.29l-7-7a0.99,0.99,0,0,1,0-1.42l7-7a1,1,0,0,1,1.41,1.41l-6.29,6.3,6.29,6.29A1,1,0,0,1,1439,1040.99Z" transform="translate(-1431 -1025)"/>
</svg>
