<svg xmlns="http://www.w3.org/2000/svg" width="18" height="18" viewBox="0 0 18 18">
  <defs>
    <style>
      .cls-1 {
        fill: #009cff;
        fill-rule: evenodd;
      }
    </style>
  </defs>
  <path class="cls-1" d="M2576,1026a7,7,0,1,1-7,7,7.008,7.008,0,0,1,7-7m0-2a9,9,0,1,0,9,9,9.014,9.014,0,0,0-9-9h0Zm-3,13a1.024,1.024,0,0,1-.71-0.29,1.008,1.008,0,0,1,0-1.42l6-6a1,1,0,0,1,1.41,1.42l-6,6A1,1,0,0,1,2573,1037Zm6,0a1.024,1.024,0,0,1-.71-0.29l-6-6a1.008,1.008,0,0,1,0-1.42,1,1,0,0,1,1.41,0l6,6a0.99,0.99,0,0,1,0,1.42A1,1,0,0,1,2579,1037Z" transform="translate(-2567 -1024)"/>
</svg>
