<svg xmlns="http://www.w3.org/2000/svg" width="16" height="16" viewBox="0 0 16 16">
  <defs>
    <style>
      .cls-1 {
        fill: #fff;
        fill-rule: evenodd;
      }
    </style>
  </defs>
  <path class="cls-1" d="M1097.99,237a1.02,1.02,0,0,1-.71-0.294L1083.27,222.7a1,1,0,1,1,1.41-1.415L1098.7,235.3A1,1,0,0,1,1097.99,237Zm-14.01,0a0.986,0.986,0,0,1-.71-0.294,1,1,0,0,1,0-1.414l14.01-14.007a1,1,0,0,1,1.42,1.415l-14.02,14.006A0.98,0.98,0,0,1,1083.98,237Z" transform="translate(-1083 -221)"/>
</svg>
