<svg xmlns="http://www.w3.org/2000/svg" width="22" height="22" viewBox="0 0 22 22">
  <defs>
    <style>
      .cls-1 {
        fill: #fff;
        fill-rule: evenodd;
      }
    </style>
  </defs>
  <path class="cls-1" d="M639,332a11,11,0,1,1,11-11A11.013,11.013,0,0,1,639,332Zm0-20a9,9,0,1,0,9,9A9.009,9.009,0,0,0,639,312Zm-0.5,6h0a1.5,1.5,0,0,1-1.5-1.5h0a1.5,1.5,0,0,1,1.5-1.5h0a1.5,1.5,0,0,1,1.5,1.5h0A1.5,1.5,0,0,1,638.5,318Zm2.5,9h-2a1,1,0,0,1-1-1v-5h-1a1,1,0,0,1,0-2h2a1,1,0,0,1,1,1v5h1A1,1,0,1,1,641,327Z" transform="translate(-628 -310)"/>
</svg>
