<svg xmlns="http://www.w3.org/2000/svg" width="23" height="24" viewBox="0 0 23 24">
  <defs>
    <style>
      .cls-1 {
        fill: #009cff;
        fill-rule: evenodd;
      }
    </style>
  </defs>
  <path class="cls-1" d="M651.775,651.105a0.544,0.544,0,0,0-.578-0.016L629.246,664.01a0.535,0.535,0,0,0,.13.979l5.579,1.539a0.536,0.536,0,0,0,.486-0.1l8.911-7.221-6.216,7.872a0.53,0.53,0,0,0-.115.33v7.07a0.537,0.537,0,0,0,.39.514,0.526,0.526,0,0,0,.151.022,0.541,0.541,0,0,0,.456-0.249l3.88-6.042,5.674,1.566a0.545,0.545,0,0,0,.681-0.438l2.755-18.221a0.536,0.536,0,0,0-.233-0.525h0Zm0,0" transform="translate(-629 -651)"/>
</svg>
