<svg xmlns="http://www.w3.org/2000/svg" width="14" height="13" viewBox="0 0 14 13">
  <defs>
    <style>
      .cls-1 {
        fill: #ffc400;
        fill-rule: evenodd;
      }
    </style>
  </defs>
  <path class="cls-1" d="M186,228l2.163,4.282L193,232.973l-3.5,3.333,0.827,4.707L186,238.791l-4.326,2.222,0.826-4.707-3.5-3.333,4.837-.687Z" transform="translate(-179 -228)"/>
</svg>
