<svg xmlns="http://www.w3.org/2000/svg" width="20" height="22" viewBox="0 0 20 22">
  <defs>
    <style>
      .cls-1 {
        fill: #009cff;
        fill-rule: evenodd;
      }
    </style>
  </defs>
  <path class="cls-1" d="M412,65a1,1,0,0,1-1-1V55.414l-5.708-5.707A1,1,0,0,1,405,49V44a1,1,0,0,1,1-1h18a1,1,0,0,1,1,1v5a1,1,0,0,1-.292.707L419,55.414V61a1,1,0,0,1-.552.895l-6,3A1.007,1.007,0,0,1,412,65Zm-5-16.414,5.707,5.707A1,1,0,0,1,413,55v7.382l4-2V55a1,1,0,0,1,.292-0.707L423,48.586V45H407v3.586ZM418,50H406a1,1,0,0,1,0-2h12A1,1,0,0,1,418,50Z" transform="translate(-405 -43)"/>
</svg>
