<svg xmlns="http://www.w3.org/2000/svg" width="23" height="20" viewBox="0 0 23 20">
  <defs>
    <style>
      .cls-1 {
        fill: #fff;
        fill-rule: evenodd;
      }
    </style>
  </defs>
  <path class="cls-1" d="M1734.99,1837a1.024,1.024,0,0,1-.71-0.29l-3-3a1,1,0,0,1,1.42-1.42l2.29,2.3,2.29-2.3a1,1,0,0,1,1.42,1.42l-3,3A1.024,1.024,0,0,1,1734.99,1837Zm16.59,4.59-1.42,1.41-17.17-17.17,1.41-1.42Zm-4.76-7.59h0.17a1,1,0,0,0,0-2h-2v-4a1,1,0,0,0-2,0v2.17Zm-3.83-1v1h1Zm-7,0a7.938,7.938,0,0,1,1.87-5.13l-1.41-1.41a9.91,9.91,0,0,0-2.46,6.54,9.688,9.688,0,0,0,.25,2.22,1,1,0,0,0,1.95-.44A8.162,8.162,0,0,1,1735.99,1833Zm3.34-6.49a7.987,7.987,0,0,1,11.15,11.15l1.43,1.43a9.989,9.989,0,0,0-14.01-14.01Zm9.79,12.62a7.987,7.987,0,0,1-10.63-.32,1,1,0,1,0-1.37,1.45,9.967,9.967,0,0,0,13.42.28Z" transform="translate(-1731 -1823)"/>
</svg>
