<svg xmlns="http://www.w3.org/2000/svg" width="14" height="13" viewBox="0 0 14 13">
  <defs>
    <style>
      .cls-1 {
        fill: #ffc400;
        fill-rule: evenodd;
      }
    </style>
  </defs>
  <path class="cls-1" d="M287,364l2.162,4.282L294,368.972l-3.5,3.333,0.826,4.707L287,374.79l-4.328,2.222,0.828-4.707-3.5-3.333,4.839-.687Z" transform="translate(-280 -364)"/>
</svg>
