<svg xmlns="http://www.w3.org/2000/svg" width="14" height="13" viewBox="0 0 14 13">
  <defs>
    <style>
      .cls-1 {
        fill: #ff6d00;
        fill-rule: evenodd;
      }
    </style>
  </defs>
  <path class="cls-1" d="M455,364l2.163,4.282L462,368.972l-3.5,3.333,0.825,4.707L455,374.79l-4.325,2.222,0.825-4.707-3.5-3.333,4.836-.687Z" transform="translate(-448 -364)"/>
</svg>
